%!PS-Adobe-3.0
%%Creator: LightBurn
%%Title: <untitled>
%%BoundingBox: 2 2 333 161
%%HiResBoundingBox: 2.30326 2.20891 332.069 160.072
%%DocumentProcessColors: Black
%%DocumentNeededResources: procset Adobe_packedarray 2.0 0
%%+ procset Adobe_cshow 1.1 0
%%+ procset Adobe_customcolor 1.0 0
%%+ procset Adobe_Illustrator_AI3 1.0 1
%0X0.07FF69P-1022I3_ColorUsage: Color
%0X0.07FF69P-1022I3_DocumentPreview: None
%%PageOrigin:0 0
%%EndComments
%%BeginProlog
%%IncludeResource: procset Adobe_packedarray 2.0 0
Adobe_packedarray /initialize get exec
%%IncludeResource: procset Adobe_cshow 1.1 0
%%IncludeResource: procset Adobe_customcolor 1.0 0
%%IncludeResource: procset Adobe_Illustrator_AI3 1.0 1
%%EndProlog
%%BeginSetup
Adobe_cshow /initialize get exec
Adobe_customcolor /initialize get exec
Adobe_Illustrator_AI3 /initialize get exec
%%EndSetup
0 A
0 O
0 0 0 1 K
0 J 0 j 1 w 10 M []0 d
0 0 0 XA
710.72174 -142.65436 m
712.41479 -145.25938 715.88904 -146.01651 718.51245 -144.35213 C
719.2323 -143.89545 L
720.50262 -143.08951 722.0412 -142.82152 723.50916 -143.15051 C
724.97717 -143.47951 726.25427 -144.37848 727.05914 -145.64949 C
733.88104 -156.42226 L
734.63483 -157.61264 734.28094 -159.18871 733.09052 -159.94252 C
731.90021 -160.69633 730.32416 -160.34244 729.57031 -159.15207 C
S
710.68817 -142.60211 m
710.69928 -142.61961 710.71045 -142.63698 710.72174 -142.65436 C
S
729.57031 -159.15207 m
727.29114 -155.55965 L
726.24286 -153.90723 724.05341 -153.41754 722.401 -154.46588 C
720.74854 -155.51422 720.25891 -157.70363 721.30719 -159.35605 C
723.08154 -162.15274 L
878.99146 -407.89929 L
884.52087 -416.61679 891.06635 -424.64661 898.48999 -431.82001 C
905.9046 -438.39685 L
910.92755 -443.2504 918.73749 -443.72098 924.30688 -439.50574 C
929.87628 -435.2905 931.54431 -427.64618 928.2373 -421.49399 C
924.93036 -415.34177 917.63422 -412.51605 911.04602 -414.83585 C
908.08398 -415.87881 904.83728 -414.32315 903.79437 -411.36115 C
902.75134 -408.39911 904.30701 -405.15244 907.26898 -404.10947 C
917.86035 -400.38004 929.64526 -404.00418 936.31079 -413.04053 C
942.97632 -422.07687 942.95953 -434.4064 936.26935 -443.42453 C
929.57922 -452.44266 917.78448 -456.03461 907.20331 -452.27631 C
906.40875 -451.96155 905.61908 -451.63559 904.83386 -451.29822 C
902.97449 -450.41904 901.22815 -449.3186 899.63281 -448.02069 C
887.76782 -438.36853 877.54364 -426.85953 869.35645 -413.94003 C
690.61456 -131.86649 L
680.36835 -115.69694 665.47455 -103.00154 647.88647 -95.445328 C
632.19055 -88.702065 L
631.42322 -88.362946 630.6521 -88.03167 629.87793 -87.708511 C
624.87207 -85.557884 620.03656 -83.030579 615.41309 -80.14827 C
608.86212 -76.0644 L
568.37567 -50.825317 521.62317 -37.444626 473.91422 -37.441883 C
426.20511 -37.444679 379.45264 -50.825428 338.96637 -76.064484 C
332.41547 -80.148285 L
327.79199 -83.030563 322.95648 -85.557899 317.95056 -87.708549 C
299.94208 -95.445374 L
282.35397 -103.00159 267.46017 -115.69698 257.21402 -131.86655 C
78.475471 -413.93488 L
70.287849 -426.85641 60.062344 -438.36731 48.195854 -448.02078 C
38.643242 -455.79187 24.906179 -455.64185 15.525628 -447.66391 C
6.1450772 -439.68597 3.7913213 -426.15125 9.9278774 -415.47482 C
16.06439 -404.79846 28.944304 -400.01962 40.559578 -404.10956 C
43.521561 -405.15253 45.077251 -408.3992 44.034286 -411.36124 C
42.991322 -414.32324 39.744644 -415.87891 36.782616 -414.83594 C
30.194452 -412.51614 22.898363 -415.34186 19.591349 -421.49408 C
16.284334 -427.64624 17.952396 -435.29056 23.521729 -439.50583 C
29.091063 -443.72107 36.901089 -443.25046 41.923958 -438.39694 C
49.338608 -431.8201 L
56.762295 -424.64673 63.307724 -416.61685 68.837173 -407.89935 C
224.74704 -162.15279 L
226.52133 -159.35609 L
227.56969 -157.70367 227.07999 -155.51427 225.42758 -154.46591 C
223.77516 -153.41757 221.58577 -153.90727 220.53741 -155.55968 C
218.25826 -159.1521 L
217.50446 -160.34248 215.92838 -160.69638 214.73799 -159.94257 C
213.54762 -159.18875 213.19373 -157.61269 213.94754 -156.42232 C
220.76947 -145.64954 L
221.57434 -144.37854 222.85138 -143.47955 224.3194 -143.15056 C
225.78738 -142.82156 227.32594 -143.08955 228.5963 -143.89549 C
229.31612 -144.35217 L
231.93951 -146.01656 235.41382 -145.25943 237.10683 -142.6544 C
237.11812 -142.63701 237.12929 -142.61966 237.14038 -142.60216 C
236.89015 -142.99657 L
237.10683 -142.6544 L
278.14032 -77.856812 L
296.10419 -49.477596 324.0643 -28.873383 356.49045 -20.11953 C
358.66574 -19.532272 360.00528 -17.350035 359.54422 -15.144507 C
359.4798 -14.836268 L
358.9993 -12.537654 360.47318 -10.284742 362.77182 -9.8042488 C
373.31558 -7.6002254 L
374.38824 -7.3759956 375.43961 -8.0638056 375.66382 -9.1364918 C
375.88806 -10.20918 375.20026 -11.260532 374.12756 -11.484752 C
369.68805 -12.412718 L
368.61536 -12.636938 367.92755 -13.68829 368.15173 -14.760979 C
368.26813 -15.317699 L
368.492 -16.388924 369.54099 -17.076614 370.61243 -16.854809 C
404.59628 -9.8197937 439.20944 -6.2702551 473.91418 -6.2614717 C
508.61856 -6.2702498 543.23175 -9.8196955 577.21588 -16.854752 C
578.28754 -17.076595 579.33655 -16.388905 579.56042 -15.31768 C
579.67682 -14.76096 L
579.901 -13.688271 579.21313 -12.636919 578.1405 -12.412701 C
573.70099 -11.484733 L
572.6283 -11.260515 571.94049 -10.209165 572.16467 -9.1364756 C
572.38892 -8.0637884 573.44031 -7.375978 574.51294 -7.6002078 C
585.0567 -9.8042288 L
587.35535 -10.284721 588.82922 -12.537634 588.34875 -14.836247 C
588.2843 -15.144487 L
587.82324 -17.350016 589.16278 -19.532253 591.33807 -20.119503 C
623.76416 -28.873323 651.7243 -49.477509 669.68817 -77.856728 C
710.72174 -142.65436 L
710.93842 -142.99652 L
710.68817 -142.60211 L
S
%%PageTrailer
gsave annotatepage grestore showpage
%%Trailer
Adobe_Illustrator_AI3 /terminate get exec
Adobe_customcolor /terminate get exec
Adobe_cshow /terminate get exec
Adobe_packedarray /terminate get exec
%%EOF
